…
The parameters were assigned to the sheet_reference variable. If everything went alright you will see a “Sheet successfully identified: ‘R4DS deidentified data’” message in the prompt. Now, if you run sheet_reference you can see all the parameters.

Now that you specified which google sheet you want, you may also list the sheets inside a worksheet with gs_ws_ls(). When the worksheet you are interested in has more than one sheet, this command will be useful for you to specify exactly which sheet you want to download. if not specified, by default the package will download the first sheet in the worksheet.

#Listing all the sheets in our desired google sheet
gs_ws_ls(sheet_reference)

For the “R4DS unidentified data” google sheet there’s just one sheet named “Sheet1”. Since the package downloads the first sheet by default, there is no need for us to specify it.

Parameters at hand! Now we can download and have a first look at the data with googlesheets::gs_read() and assing it to the dados variable. The word “dados” is brazilian for data, thats my way of broadly naming the data while preventing conflicts with any function’s “data” parameter. Consider it my nationality’s contribution for this post! ;D

#Downloading the data from the google sheet
(dados <- gs_read(ss = sheet_reference, ws = "Sheet1"))

## # A tibble: 886 x 7
##    Type    RStudio Stats Location                 Cohort      lon   lat
##    <chr>     <dbl> <dbl> <chr>                    <chr>     <dbl> <dbl>
##  1 Learner       2     3 Hinsdale, IL USA         First   -87.9    41.8
##  2 Mentor        5     4 Halifax                  First   -70.9    42.0
##  3 Learner       2     2 Charlotte, NC USA        First   -80.8    35.2
##  4 Mentor        5     4 London, Uk               First    -0.128  51.5
##  5 Learner       4     3 Rome, Italy              First    NA      NA  
##  6 Learner       3     2 Illinois                 First    NA      NA  
##  7 Mentor        5     5 Cambridge, MA, USA       First    NA      NA  
##  8 Learner       2     4 Seattle, WA, USA         First  -122.     47.6
##  9 Learner       3     3 Claremont                First  -118.     34.1
## 10 Learner       2     2 San Jose, California, US First    NA      NA  
## # ... with 876 more rows
…
